intro-to-dplyr
…
Imported from magrittr package

Can “pipe” function output from one data manipulation step to the next

Produces clean, readable code that reads from left to right, top to bottom

Note: The %>% reads as “then”

Example

# Print first 10 rows
print(our_data, n = 10)

# A tibble: 15 × 3
      id group              num_gold_stars
   <int> <chr>                       <int>
 1     2 i <3 dplyr                    108
 2    10 dplyr rocks                   103
 3     7 dplyr rocks                    92
 4    11 i <3 dplyr                    101
 5     5 i <3 dplyr                    106
 6    12 clean code or bust             94
 7    15 clean code or bust             99
 8     8 i <3 dplyr                     93
 9     3 clean code or bust             91
10     9 clean code or bust             96
# … with 5 more rows
…
# Subset data for observations where poverty
# ratio IS missing (NA)
filter(data, is.na(poverty_ratio))

# Subset data for observations where poverty
# ratio is NOT missing (NA)
filter(data, !is.na(poverty_ratio))

dplyr::filter()

# Subset data for observations where poverty
# ratio IS missing (NA)
filter(data, is.na(poverty_ratio))

# A tibble: 203 × 12
   id      age race_ethnicity     mean_BP height weight poverty_ratio  PFOS  PFOA  PFNA  PFHS  PFDE
   <chr> <int> <fct>                <dbl>  <dbl>  <dbl>         <dbl> <dbl> <dbl> <dbl> <dbl> <dbl>
 1 73598    20 Hispanic             112     165    86.7            NA   4.7  1.8    0.5   1.6  0.2 
 2 73699    20 Non-Hispanic White    98     184.   77              NA   5.6  4.6    0.5   4.4  0.1 
 3 73703    38 Hispanic              99.3   156.   63.7            NA   5    0.97   0.5   1.6  0.2 
 4 73724    26 Non-Hispanic Black   117.    184.   65.1            NA  14.8  2.9    0.8   2.1  0.1 
 5 73733    23 Hispanic             112     154    75.8            NA   2.9  1.27   0.4   1.1  0.1 
 6 73756    56 Non-Hispanic White   119.    171.   75              NA   4.6  3.2    0.5   0.9  0.2 
 7 73774    80 Non-Hispanic Black   NaN     159.   58.9            NA   6.5  1.97   0.8   2.7  0.3 
 8 73872    63 <NA>                 118     158.   70.3            NA  11.7  1.87   1.5   1    3.3 
 9 73914    52 <NA>                 111.    160.   63.6            NA   1.4  1.07   0.4   0.6  0.07
10 73935    63 Hispanic             130     174.   73.6            NA   5.2  2.6    0.9   2.6  0.2 
# … with 193 more rows
…
Will overwrite variables that share the same name

Missing values are sorted last (NAs at bottom)

Examples

# Derive new variabes 
data %>% 
  mutate(weight_lbs = round(weight * 2.20462, 2), 
         height_in = round(height * 0.393701, 2),
         age_55 = if_else(age >= 60, 1, 0)
         ) %>% 
  select(id, age, age_55, height, height_in, weight, weight_lbs)

# A tibble: 2,339 × 7
   id      age age_55 height height_in weight weight_lbs
   <chr> <int>  <dbl>  <dbl>     <dbl>  <dbl>      <dbl>
 1 73568    26      0   152.      60.0   47.1       104.
 2 73571    76      1   172.      67.9  102.        226.
 3 73574    33      0   158       62.2   56.8       125.
 4 73576    16      0   170.      67.1   67.3       148.
 5 73577    32      0   166.      65.4   79.7       176.
 6 73578    18      0   175.      69.0  109.        241.
 7 73584    13      0   145.      57.0   53.1       117.
 8 73587    14      0   169.      66.5  110.        243.
 9 73597    50      0   180.      71.1  104.        230.
10 73598    20      0   165       65.0   86.7       191.
# … with 2,329 more rows
…
Notice that the standard data frame does not print with information about data types, dataset dimensions, etc. Additionally, constraints of the slide width prevent information about other columns in the data frame from being displayed. Standard data frames run into similar print issues in the R console, which can make them difficult to work with

Example

# Coerce the data frame to a tibble data frame, and assign it to 'data'
data <- as_tibble(nhanes_id529)

# Print the tibble data frame
data

# A tibble: 2,339 × 22
   id    race_et…¹ sex_g…²   age pover…³ days_…⁴ PFAS_…⁵  PFOS  PFOA  PFNA  PFHS
   <chr> <fct>     <fct>   <int>   <dbl>   <int>   <dbl> <dbl> <dbl> <dbl> <dbl>
 1 73568 Non-Hisp… Female     26    5         NA    8.9    2.2  3      0.5   3  
 2 73571 Non-Hisp… Male       76    5          2   18.6   10.2  4.77   1.3   2  
 3 73574 <NA>      Female     33    2.1        7   NA     NA   NA      0.7   0.2
 4 73576 Non-Hisp… Male       16    1.58      NA   15.5    4.7  2.37   0.6   7.6
 5 73577 Hispanic  Male       32    0.29       0    6.17   3    1.47   0.4   1.2
 6 73578 Hispanic  Male       18    0.58      NA   NA     NA   NA     NA    NA  
 7 73584 Non-Hisp… Male       13    3.07      NA   11.2    7    2.37   0.8   0.8
 8 73587 <NA>      Male       14    3.33      NA   53.0   35.5  6.17   3.3   6.3
 9 73597 Non-Hisp… Female     50    2.18       0   NA     NA   NA     NA    NA  
10 73598 Hispanic  Male       20   NA         NA    8.8    4.7  1.8    0.5   1.6
# … with 2,329 more rows, 11 more variables: PFDE <dbl>, total_energy <int>,
#   fast_food_energy_no_popcorn_no_seafood <int>,
#   restaurant_energy_no_popcorn_no_seafood <int>,
#   non_fast_food_or_restaurant_energy_no_popcorn_no_seafood <int>,
#   popcorn_energy <int>, shellfish_energy <int>, fish_energy <int>,
#   mean_BP <dbl>, weight <dbl>, height <dbl>, and abbreviated variable names
#   ¹​race_ethnicity, ²​sex_gender, ³​poverty_ratio, ⁴​days_dental_floss, …
…
Example

# A tibble: 2,339 × 12
   id    race_eth           mean_sbp weight height pov_ratio  pfos  pfoa  pfna  pfhs  pfde pfas_total
   <chr> <fct>                 <dbl>  <dbl>  <dbl>     <dbl> <dbl> <dbl> <dbl> <dbl> <dbl>      <dbl>
 1 73568 Non-Hispanic White     105.   47.1   152.      5      2.2  3      0.5   3     0.2       8.9 
 2 73571 Non-Hispanic White     126   102.    172.      5     10.2  4.77   1.3   2     0.3      18.6 
 3 73574 <NA>                   121.   56.8   158       2.1   NA   NA      0.7   0.2   0.1      NA   
 4 73576 Non-Hispanic Black     109.   67.3   170.      1.58   4.7  2.37   0.6   7.6   0.2      15.5 
 5 73577 Hispanic               119.   79.7   166.      0.29   3    1.47   0.4   1.2   0.1       6.17
 6 73578 Hispanic               123.  109.    175.      0.58  NA   NA     NA    NA    NA        NA   
 7 73584 Non-Hispanic White     109.   53.1   145.      3.07   7    2.37   0.8   0.8   0.2      11.2 
 8 73587 <NA>                   112   110.    169.      3.33  35.5  6.17   3.3   6.3   1.7      53.0 
 9 73597 Non-Hispanic Black     NaN   104.    180.      2.18  NA   NA     NA    NA    NA        NA   
10 73598 Hispanic               112    86.7   165      NA      4.7  1.8    0.5   1.6   0.2       8.8 
# … with 2,329 more rows
…
