reading-in-data
…
https://readr.tidyverse.org/

Example: read_csv()

# Load readr package (not necessary if you've loaded the tidyverse)
library(readr)

# Read in data, which is stored in a csv file 
data <- read_csv("data/cvdstudy.csv", na = "")

# Look at the data
data

# A tibble: 2,401 × 10
      id survdate     age   edu smoke  cigs   sbp   dbp  chol glucose
   <dbl> <date>     <dbl> <dbl> <dbl> <dbl> <dbl> <dbl> <dbl>   <dbl>
 1 32955 2019-11-04    54     2     1    15  230  110     262      97
 2 36997 2019-10-31    49     3     1     9  110   76     281      78
 3 34659 2019-07-14    57     1     0     0  146   76     258      87
 4 36762 2019-04-18    58     2     1    60  150   97     250      65
 5 32197 2019-02-20    56     1     1     3  145  100     285      86
 6 33534 2019-07-07    45     3     1    23  115   76     263      78
 7 36763 2019-01-04    37     1     1    20  112   73.5   166      93
 8 33026 2018-09-18    48     1     1    25  102   66.5   304      66
 9 35364 2019-06-13    62     1     0     0  130   87     157      47
10 34177 2019-03-19    54     1     0     0  136.  83     254      95
# … with 2,391 more rows
…
# Read in data and specify data types for specific columns 
data <- read_csv("data/cvdstudy.csv", na = "",
                 col_types = cols(
                   id = col_character(),
                   smoke = col_factor(levels = c("0", "1")),
                   edu = col_factor(levels = c("1", "2", "3", "4"))
                   )
                 )

# Look at the data
data

# A tibble: 2,401 × 10
   id    survdate     age edu   smoke  cigs   sbp   dbp  chol glucose
   <chr> <date>     <dbl> <fct> <fct> <dbl> <dbl> <dbl> <dbl>   <dbl>
 1 32955 2019-11-04    54 2     1        15  230  110     262      97
 2 36997 2019-10-31    49 3     1         9  110   76     281      78
 3 34659 2019-07-14    57 1     0         0  146   76     258      87
 4 36762 2019-04-18    58 2     1        60  150   97     250      65
 5 32197 2019-02-20    56 1     1         3  145  100     285      86
 6 33534 2019-07-07    45 3     1        23  115   76     263      78
 7 36763 2019-01-04    37 1     1        20  112   73.5   166      93
 8 33026 2018-09-18    48 1     1        25  102   66.5   304      66
 9 35364 2019-06-13    62 1     0         0  130   87     157      47
10 34177 2019-03-19    54 1     0         0  136.  83     254      95
# … with 2,391 more rows
…
Example: read_delim()

# Read in data and specify data types for specific columns and the delimiter used in the file
data <- read_delim("data/cvdstudy.txt", delim = "\t", na = "NA",
                   col_types = cols(
                     id = col_character(),
                     smoke = col_factor(levels = c("0", "1")),
                     edu = col_factor(levels = c("1", "2", "3", "4"))
                   )
                 )

# Look at the data
data

# A tibble: 2,401 × 10
   id    survdate     age edu   smoke  cigs   sbp   dbp  chol glucose
   <chr> <date>     <dbl> <fct> <fct> <dbl> <dbl> <dbl> <dbl>   <dbl>
 1 32955 2019-11-04    54 2     1        15  230  110     262      97
 2 36997 2019-10-31    49 3     1         9  110   76     281      78
 3 34659 2019-07-14    57 1     0         0  146   76     258      87
 4 36762 2019-04-18    58 2     1        60  150   97     250      65
 5 32197 2019-02-20    56 1     1         3  145  100     285      86
 6 33534 2019-07-07    45 3     1        23  115   76     263      78
 7 36763 2019-01-04    37 1     1        20  112   73.5   166      93
 8 33026 2018-09-18    48 1     1        25  102   66.5   304      66
 9 35364 2019-06-13    62 1     0         0  130   87     157      47
10 34177 2019-03-19    54 1     0         0  136.  83     254      95
# … with 2,391 more rows
…
https://readxl.tidyverse.org/

Example: read_xlsx()

# Load readxl package
library(readxl)

# Read in the xlsx file, which we know is located on sheet 2 inside of the file
data <- read_xlsx("data/cvdstudy.xlsx", sheet = 2, na = "")

# Look at the data
data

# A tibble: 2,411 × 10
   `Summary statistics` ...2     ...3  ...4  ...5  ...6  ...7  ...8  ...9  ...10
   <chr>                <chr>    <chr> <chr> <chr> <chr> <chr> <chr> <chr> <chr>
 1 <NA>                 Age      SBP   DBP   Chol  Gluc… <NA>  <NA>  <NA>  <NA> 
 2 Mean                 49.9433… 132.… 82.8… 236.… 49.9… <NA>  <NA>  <NA>  <NA> 
 3 Std. Dev             8.65920… 21.8… 11.8… 45.4… 8.65… <NA>  <NA>  <NA>  <NA> 
 4 Min                  33       85.5  48    124   40    <NA>  <NA>  <NA>  <NA> 
 5 Max                  70       244   141   696   370   <NA>  <NA>  <NA>  <NA> 
 6 <NA>                 <NA>     <NA>  <NA>  <NA>  <NA>  <NA>  <NA>  <NA>  <NA> 
 7 <NA>                 <NA>     <NA>  <NA>  <NA>  <NA>  <NA>  <NA>  <NA>  <NA> 
 8 <NA>                 <NA>     <NA>  <NA>  <NA>  <NA>  <NA>  <NA>  <NA>  <NA> 
 9 <NA>                 <NA>     <NA>  <NA>  <NA>  <NA>  <NA>  <NA>  <NA>  <NA> 
10 id                   survdate age   edu   smoke cigs  sbp   dbp   chol  gluc…
# … with 2,401 more rows
…
Example: read_xlsx()

# Create a vector of column types (limited to skip, guess, logical, numeric, date, text or list)
col_types <- c("text", "date", "numeric", "guess", "guess", "numeric", 
               "numeric", "numeric", "numeric", "numeric")

# Read in the xlsx file, which we know is located on sheet 2 inside of the file
data <- read_xlsx("data/cvdstudy.xlsx", sheet = 2, skip = 10, 
                  col_names = TRUE, col_types = col_types)

# Look at the data
data

# A tibble: 2,401 × 10
   id    survdate   age   edu smoke  cigs   sbp   dbp  chol glucose
   <chr> <dttm>   <dbl> <dbl> <dbl> <dbl> <dbl> <dbl> <dbl>   <dbl>
 1 32955 NA          54     2     1    15  230  110     262      97
 2 36997 NA          49     3     1     9  110   76     281      78
 3 34659 NA          57     1     0     0  146   76     258      87
 4 36762 NA          58     2     1    60  150   97     250      65
 5 32197 NA          56     1     1     3  145  100     285      86
 6 33534 NA          45     3     1    23  115   76     263      78
 7 36763 NA          37     1     1    20  112   73.5   166      93
 8 33026 NA          48     1     1    25  102   66.5   304      66
 9 35364 NA          62     1     0     0  130   87     157      47
10 34177 NA          54     1     0     0  136.  83     254      95
# … with 2,391 more rows
…
Example: read_xlsx()

# Read in the xlsx file, which we know is located on sheet 2 inside of the file
data <- read_xlsx("data/cvdstudy.xlsx", sheet = 2, skip = 10, col_names = TRUE)

# Base R approach to updating column data types (we'll learn more elegant solutions, soon!)
data$survdate <- as.Date(data$survdate)
data$edu <- factor(data$edu, levels = c("1", "2", "3", "4"))
data$smoke <- factor(data$smoke, levels = c("0", "1"))

# Look at the data
data

# A tibble: 2,401 × 10
   id    survdate     age edu   smoke  cigs   sbp   dbp  chol glucose
   <chr> <date>     <dbl> <fct> <fct> <dbl> <dbl> <dbl> <dbl>   <dbl>
 1 32955 2019-11-04    54 2     1        15  230  110     262      97
 2 36997 2019-10-31    49 3     1         9  110   76     281      78
 3 34659 2019-07-14    57 1     0         0  146   76     258      87
 4 36762 2019-04-18    58 2     1        60  150   97     250      65
 5 32197 2019-02-20    56 1     1         3  145  100     285      86
 6 33534 2019-07-07    45 3     1        23  115   76     263      78
 7 36763 2019-01-04    37 1     1        20  112   73.5   166      93
 8 33026 2018-09-18    48 1     1        25  102   66.5   304      66
 9 35364 2019-06-13    62 1     0         0  130   87     157      47
10 34177 2019-03-19    54 1     0         0  136.  83     254      95
# … with 2,391 more rows
…
# Load the haven package
library(haven)

# Read in the stata (.dta) file
data <- read_dta("data/cvdstudy.dta")

# There's no built in col types argument, so we'll use the base R approach to update data types 
data$survdate <- as.Date(data$survdate)
data$edu <- factor(data$edu, levels = c("1", "2", "3", "4"))
data$smoke <- factor(data$smoke, levels = c("0", "1"))

# Look at the data
data

# A tibble: 2,401 × 10
   id    survdate     age edu   smoke  cigs   sbp   dbp  chol glucose
   <chr> <date>     <dbl> <fct> <fct> <dbl> <dbl> <dbl> <dbl>   <dbl>
 1 32955 2019-11-04    54 2     1        15  230  110     262      97
 2 36997 2019-10-31    49 3     1         9  110   76     281      78
 3 34659 2019-07-14    57 1     0         0  146   76     258      87
 4 36762 2019-04-18    58 2     1        60  150   97     250      65
 5 32197 2019-02-20    56 1     1         3  145  100     285      86
 6 33534 2019-07-07    45 3     1        23  115   76     263      78
 7 36763 2019-01-04    37 1     1        20  112   73.5   166      93
 8 33026 2018-09-18    48 1     1        25  102   66.5   304      66
 9 35364 2019-06-13    62 1     0         0  130   87     157      47
10 34177 2019-03-19    54 1     0         0  136.  83     254      95
# … with 2,391 more rows
…
Case Studies

Case study 1

Your non-technical colleague has reached out to you for assistance with preparing an old dataset for an upcoming project. Your colleague typically receives curated datasets and has not previously worked with data stored in a fixed width file format.

As an expert R programmer, you offer to help. Upon receiving the dataset, you read the data into R to inspect its contents and observe the following:

read_fwf("data/newstudy.txt")

# A tibble: 534 × 2
        X1 X2                  
     <dbl> <chr>               
 1 3230559 20 0244.0124.0264120
 2 3484062 11  242.0141.0206 94
 3 3568665 10 0235.0100.0240297
 4 3573556 1120200.0120.0217 72
 5 3351661 10 0200.0125.0265256
 6 3469763 30 0196.0102.0161 88
 7 3382758 10 0195.0 90.0294127
 8 3346766 30 0193.0132.0280 73
 9 3563665 2120192.5110.0212 71
10 3609445 2120189.0 87.0234 90
# … with 524 more rows
…
# A tibble: 534 × 9
      id   age   edu smoke  cigs   sbp   dbp  chol glucose
   <dbl> <dbl> <dbl> <dbl> <dbl> <dbl> <dbl> <dbl>   <dbl>
 1 32305    59     2     0     0  244    124   264     120
 2 34840    62     1     1    NA  242    141   206      94
 3 35686    65     1     0     0  235    100   240     297
 4 35735    56     1     1    20  200    120   217      72
 5 33516    61     1     0     0  200    125   265     256
 6 34697    63     3     0     0  196    102   161      88
 7 33827    58     1     0     0  195     90   294     127
 8 33467    66     3     0     0  193    132   280      73
 9 35636    65     2     1    20  192.   110   212      71
10 36094    45     2     1    20  189     87   234      90
# … with 524 more rows

Case study 2

Your colleague asks for another favor. As part of their planned analysis, the research team hopes to incorporate exercise testing data obtained from a subset of study participants who had clinical assessments. Your colleague tells you that the data are stored in a formatted excel file that’s exported directly from the exercise testing software, and their team has had trouble getting data into R to analyze. You offer to help, and your colleague provides you with a sample dataset to inspect. You observe the following:

# Read in the xlsx file
data <- read_xlsx("data/exercise.xlsx")

# Look at the data
data

# A tibble: 695 × 11
   Participant `123456` ...3  ...4  ...5  ...6     ...7  ...8  ...9  ...10 ...11
   <chr>       <chr>    <chr> <chr> <chr> <chr>    <chr> <chr> <chr> <chr> <chr>
 1 Exercise    42776    <NA>  <NA>  <NA>  <NA>     <NA>  <NA>  <NA>  <NA>  <NA> 
 2 <NA>        <NA>     <NA>  <NA>  <NA>  <NA>     <NA>  <NA>  <NA>  <NA>  <NA> 
 3 Time        Work     Speed Grade HR    VO2      RR    PETC… SpO2  sysBP diaBP
 4 (min)       (Watts)  (MPH) (%)   (BPM) (mL/kg/… (br/… (mmH… (%)   (mmH… (mmH…
 5 00:19       0        0     0.2   89    3.1      11    36    97    <NA>  <NA> 
 6 00:28       0        0     0.2   91    9.4      6     38    97    <NA>  <NA> 
 7 00:30       0        0     0.2   98    3.1      11    36    98    <NA>  <NA> 
 8 00:41       0        0     0.2   104   6.4      8     38    98    <NA>  <NA> 
 9 00:44       0        0     0.2   106   6.4      9     39    98    <NA>  <NA> 
10 00:50       0        0     0.2   113   7        10    39    98    <NA>  <NA> 
# … with 685 more rows
…
The data structure issue can be resolved fairly easily

Use the skip argument to skip the non-rectangular data at the top of the file

After rows are skipped, drop the first row of data containing units using [-1,]

# The data formatting issue can be 
library(readxl)
data <- read_xlsx("data/exercise.xlsx", skip = 3)[-1,]

# Look at the data
data

# A tibble: 691 × 11
   Time  Work  Speed Grade HR    VO2   RR    PETCO2 SpO2  sysBP diaBP
   <chr> <chr> <chr> <chr> <chr> <chr> <chr> <chr>  <chr> <chr> <chr>
 1 00:19 0     0     0.2   89    3.1   11    36     97    <NA>  <NA> 
 2 00:28 0     0     0.2   91    9.4   6     38     97    <NA>  <NA> 
 3 00:30 0     0     0.2   98    3.1   11    36     98    <NA>  <NA> 
 4 00:41 0     0     0.2   104   6.4   8     38     98    <NA>  <NA> 
 5 00:44 0     0     0.2   106   6.4   9     39     98    <NA>  <NA> 
 6 00:50 0     0     0.2   113   7     10    39     98    <NA>  <NA> 
 7 00:53 0     0     0.2   110   7.6   9     39     98    120   70   
 8 00:57 0     0     0.2   109   8.6   9     39     98    120   70   
 9 01:02 0     0     0.2   105   8.6   11    39     97    120   70   
10 01:10 0     0     0.2   104   8.6   11    39     97    120   70   
# … with 681 more rows

Case study 2 (cont.)

# Coerce all but the time column to a numeric data type
data[2:11] <- sapply(data[2:11], as.numeric)

# Standardize the column names (all lower case)
colnames(data) <- tolower(colnames(data))

data

# A tibble: 691 × 11
   time   work speed grade    hr   vo2    rr petco2  spo2 sysbp diabp
   <chr> <dbl> <dbl> <dbl> <dbl> <dbl> <dbl>  <dbl> <dbl> <dbl> <dbl>
 1 00:19     0     0   0.2    89   3.1    11     36    97    NA    NA
 2 00:28     0     0   0.2    91   9.4     6     38    97    NA    NA
 3 00:30     0     0   0.2    98   3.1    11     36    98    NA    NA
 4 00:41     0     0   0.2   104   6.4     8     38    98    NA    NA
 5 00:44     0     0   0.2   106   6.4     9     39    98    NA    NA
 6 00:50     0     0   0.2   113   7      10     39    98    NA    NA
 7 00:53     0     0   0.2   110   7.6     9     39    98   120    70
 8 00:57     0     0   0.2   109   8.6     9     39    98   120    70
 9 01:02     0     0   0.2   105   8.6    11     39    97   120    70
10 01:10     0     0   0.2   104   8.6    11     39    97   120    70
# … with 681 more rows
…
